…
    ## Warning: Unreplaced values treated as NA as .x is not compatible. Please specify
    ## replacements exhaustively or supply .default

    ## # A tibble: 285 x 21
    ##       X1    id condition national_sss procedure                 manipulation_ch…
    ##    <dbl> <dbl> <chr>            <dbl> <chr>                                <dbl>
    ##  1     1 21678 high_sss             8 It was a remarkable expe…                1
    ##  2     2 21811 high_sss             3 After seeing my old frie…                1
    ##  3     3 21340 high_sss             7 I would definitely be ve…                1
    ##  4     4 21415 high_sss             8 I would feel very powerf…                1
    ##  5     5 21759 high_sss             9 If I was at the top of t…                1
    ##  6     6 21816 high_sss             7 I would feel very accomp…                1
    ##  7     7 21341 high_sss             7 I would feel very please…                1
    ##  8     8 21802 high_sss             7 I would look for those a…                1
    ##  9     9 21349 high_sss             5 I attended my 5-year col…                1
    ## 10    10 21494 high_sss             7 Being at the top of the …                1
    ## # … with 275 more rows, and 15 more variables: exercise_frequency <dbl>,
    ## #   positive_emotion <dbl>, negative_emotion <dbl>, current_health <dbl>,
    ## #   future_health <dbl>, happiness_wake <dbl>, happiness_general <dbl>,
    ## #   exercise_intent <dbl>, empathetic_concern <dbl>, perspective_taking <dbl>,
    ## #   birthdate <dbl>, gender <dbl>, ethinicity <dbl>, SES <dbl>, race <chr>
…
